…
``` r
onmy_metadata %>%
  group_by(Time, Sampling_Site) %>%
  summarize(total = n()) %>%
  pivot_wider(names_from = "Time", values_from = "total")
```

    ## # A tibble: 31 × 4
    ##    Sampling_Site      During  Post   Pre
    ##    <chr>               <int> <int> <int>
    ##  1 elwha_river_lower      40    71   104
    ##  2 elwha_river_mouth       3     4    NA
    ##  3 lekt_outlet             1   320    NA
    ##  4 altaire                NA    14    32
    ##  5 boulder                NA     6    NA
    ##  6 chicago_camp           NA     6     7
    ##  7 ds_fishermans_bend     NA    10    NA
    ##  8 ds_ranger_station      NA     7    NA
    ##  9 elkhorn                NA   117    37
    ## 10 elwha_river_middle     NA    11    NA
    ## # … with 21 more rows
…
