…
``` r
samples_post %>%
  group_by(Location, Sampling_Site) %>%
  summarize(n())
```

    ## `summarise()` has grouped output by 'Location'. You can override using the
    ## `.groups` argument.

    ## # A tibble: 22 × 3
    ## # Groups:   Location [4]
    ##    Location Sampling_Site     `n()`
    ##    <chr>    <chr>             <int>
    ##  1 AD       boulder               6
    ##  2 AD       chicago_camp          6
    ##  3 AD       elkhorn              85
    ##  4 AD       elwha_river_upper     6
    ##  5 AD       geyser               86
    ##  6 AD       hayes                96
    ##  7 AD       long_creek            5
    ##  8 AD       mills               105
    ##  9 AD       windy_arm            16
    ## 10 BD       elwha_river_lower    57
    ## # … with 12 more rows
…
there are 57 loci in the GTSeq panel that were indicated as “adaptive”
that were not identified as Fst outliers and are in HWE

``` r
onmy_snp_adapt_nonoutlier_hwe %>%
  group_by(chromosome) %>%
  summarise(n())
```

    ## # A tibble: 27 × 2
    ##    chromosome `n()`
    ##    <chr>      <int>
    ##  1 *              1
    ##  2 omy01          3
    ##  3 omy02          3
    ##  4 omy03          2
    ##  5 omy04          1
    ##  6 omy05          1
    ##  7 omy06          5
    ##  8 omy07          3
    ##  9 omy08          2
    ## 10 omy09          1
    ## # … with 17 more rows
…
